-------------------------------------------------------------------------------
Test set: fr.istic.steam.roller.compress.algo.HuffmanTest
-------------------------------------------------------------------------------
Tests run: 13, Failures: 0, Errors: 0, Skipped: 0, Time elapsed: 0.44 s - in fr.istic.steam.roller.compress.algo.HuffmanTest
